test/encode_test/test.vcd
$date
     Jul 11, 2023       15:55:19
$end

$version
 SystemC 2.3.3-Accellera --- May 22 2023 16:46:25
$end

$timescale
     1 ns
$end

$scope module SystemC $end
$var wire    1  aaaaa  clk       $end
$var wire    1  aaaab  reset       $end
$var wire   16  aaaac  minbits [15:0]  $end
$var wire   16  aaaad  maxbits [15:0]  $end
$var wire   16  aaaae  maxprec [15:0]  $end
$var wire   16  aaaaf  minexp [15:0]  $end
$scope module c_driver_fp $end
$var wire    1  aaaaj  valid       $end
$var wire    1  aaaak  ready       $end
$scope module data $end
$var wire   52  aaaag  frac [51:0]  $end
$var wire   11  aaaah  expo [10:0]  $end
$var wire    1  aaaai  sign       $end
$upscope $end
$upscope $end
$scope module c_dut_enc $end
$var wire    1  aaaan  valid       $end
$var wire    1  aaaao  ready       $end
$scope module data $end
$var wire   64  aaaal  tdata [63:0]  $end
$var wire    1  aaaam  tlast       $end
$upscope $end
$upscope $end
$scope module u_dut $end
$scope module u_block_buffer $end
$var wire   64  aaaie  s_block0 [63:0]  $end
$var wire   64  aaaif  s_block1 [63:0]  $end
$var wire   64  aaaig  s_block2 [63:0]  $end
$var wire   64  aaaih  s_block3 [63:0]  $end
$var wire   64  aaaii  s_block4 [63:0]  $end
$var wire   64  aaaij  s_block5 [63:0]  $end
$var wire   64  aaaik  s_block6 [63:0]  $end
$var wire   64  aaail  s_block7 [63:0]  $end
$var wire   64  aaaim  s_block8 [63:0]  $end
$var wire   64  aaain  s_block9 [63:0]  $end
$var wire   64  aaaio  s_block10 [63:0]  $end
$var wire   64  aaaip  s_block11 [63:0]  $end
$var wire   64  aaaiq  s_block12 [63:0]  $end
$var wire   64  aaair  s_block13 [63:0]  $end
$var wire   64  aaais  s_block14 [63:0]  $end
$var wire   64  aaait  s_block15 [63:0]  $end
$var wire    1  aaaiu  s_valid       $end
$var wire    1  aaaiv  s_ready       $end
$var wire   64  aaaiw  m_block0 [63:0]  $end
$var wire   64  aaaix  m_block1 [63:0]  $end
$var wire   64  aaaiy  m_block2 [63:0]  $end
$var wire   64  aaaiz  m_block3 [63:0]  $end
$var wire   64  aaaja  m_block4 [63:0]  $end
$var wire   64  aaajb  m_block5 [63:0]  $end
$var wire   64  aaajc  m_block6 [63:0]  $end
$var wire   64  aaajd  m_block7 [63:0]  $end
$var wire   64  aaaje  m_block8 [63:0]  $end
$var wire   64  aaajf  m_block9 [63:0]  $end
$var wire   64  aaajg  m_block10 [63:0]  $end
$var wire   64  aaajh  m_block11 [63:0]  $end
$var wire   64  aaaji  m_block12 [63:0]  $end
$var wire   64  aaajj  m_block13 [63:0]  $end
$var wire   64  aaajk  m_block14 [63:0]  $end
$var wire   64  aaajl  m_block15 [63:0]  $end
$var wire    1  aaajm  m_valid       $end
$var wire    1  aaajn  m_ready       $end
$upscope $end
$scope module u_encode_block $end
$var wire   64  aaacs  s_block0 [63:0]  $end
$var wire   64  aaact  s_block1 [63:0]  $end
$var wire   64  aaacu  s_block2 [63:0]  $end
$var wire   64  aaacv  s_block3 [63:0]  $end
$var wire   64  aaacw  s_block4 [63:0]  $end
$var wire   64  aaacx  s_block5 [63:0]  $end
$var wire   64  aaacy  s_block6 [63:0]  $end
$var wire   64  aaacz  s_block7 [63:0]  $end
$var wire   64  aaada  s_block8 [63:0]  $end
$var wire   64  aaadb  s_block9 [63:0]  $end
$var wire   64  aaadc  s_block10 [63:0]  $end
$var wire   64  aaadd  s_block11 [63:0]  $end
$var wire   64  aaade  s_block12 [63:0]  $end
$var wire   64  aaadf  s_block13 [63:0]  $end
$var wire   64  aaadg  s_block14 [63:0]  $end
$var wire   64  aaadh  s_block15 [63:0]  $end
$var wire    1  aaadi  s_valid       $end
$var wire    1  aaadj  s_ready       $end
$var wire   64  aaadk  m_block0 [63:0]  $end
$var wire   64  aaadl  m_block1 [63:0]  $end
$var wire   64  aaadm  m_block2 [63:0]  $end
$var wire   64  aaadn  m_block3 [63:0]  $end
$var wire   64  aaado  m_block4 [63:0]  $end
$var wire   64  aaadp  m_block5 [63:0]  $end
$var wire   64  aaadq  m_block6 [63:0]  $end
$var wire   64  aaadr  m_block7 [63:0]  $end
$var wire   64  aaads  m_block8 [63:0]  $end
$var wire   64  aaadt  m_block9 [63:0]  $end
$var wire   64  aaadu  m_block10 [63:0]  $end
$var wire   64  aaadv  m_block11 [63:0]  $end
$var wire   64  aaadw  m_block12 [63:0]  $end
$var wire   64  aaadx  m_block13 [63:0]  $end
$var wire   64  aaady  m_block14 [63:0]  $end
$var wire   64  aaadz  m_block15 [63:0]  $end
$var wire    1  aaaea  m_valid       $end
$var wire    1  aaaeb  m_ready       $end
$var wire    1  aaaec  c_xt_valid0       $end
$var wire    1  aaaed  c_yt_valid0       $end
$scope module u_xt_0 $end
$var wire   64  aaaee  s_port0 [63:0]  $end
$var wire   64  aaaef  s_port1 [63:0]  $end
$var wire   64  aaaeg  s_port2 [63:0]  $end
$var wire   64  aaaeh  s_port3 [63:0]  $end
$var wire    1  aaaei  s_valid       $end
$var wire    1  aaaej  s_ready       $end
$var wire   64  aaaek  m_port0 [63:0]  $end
$var wire   64  aaael  m_port1 [63:0]  $end
$var wire   64  aaaem  m_port2 [63:0]  $end
$var wire   64  aaaen  m_port3 [63:0]  $end
$var wire    1  aaaeo  m_valid       $end
$var wire    1  aaaep  m_ready       $end
$var wire    6  aaaeq  v [5:0]  $end
$scope module u_xt_1 $end
$var wire   64  aaaer  s_port0 [63:0]  $end
$var wire   64  aaaes  s_port1 [63:0]  $end
$var wire   64  aaaet  s_port2 [63:0]  $end
$var wire   64  aaaeu  s_port3 [63:0]  $end
$var wire    1  aaaev  s_valid       $end
$var wire    1  aaaew  s_ready       $end
$var wire   64  aaaex  m_port0 [63:0]  $end
$var wire   64  aaaey  m_port1 [63:0]  $end
$var wire   64  aaaez  m_port2 [63:0]  $end
$var wire   64  aaafa  m_port3 [63:0]  $end
$var wire    1  aaafb  m_valid       $end
$var wire    1  aaafc  m_ready       $end
$var wire    6  aaafd  v [5:0]  $end
$scope module u_xt_2 $end
$var wire   64  aaafe  s_port0 [63:0]  $end
$var wire   64  aaaff  s_port1 [63:0]  $end
$var wire   64  aaafg  s_port2 [63:0]  $end
$var wire   64  aaafh  s_port3 [63:0]  $end
$var wire    1  aaafi  s_valid       $end
$var wire    1  aaafj  s_ready       $end
$var wire   64  aaafk  m_port0 [63:0]  $end
$var wire   64  aaafl  m_port1 [63:0]  $end
$var wire   64  aaafm  m_port2 [63:0]  $end
$var wire   64  aaafn  m_port3 [63:0]  $end
$var wire    1  aaafo  m_valid       $end
$var wire    1  aaafp  m_ready       $end
$var wire    6  aaafq  v [5:0]  $end
$scope module u_xt_3 $end
$var wire   64  aaafr  s_port0 [63:0]  $end
$var wire   64  aaafs  s_port1 [63:0]  $end
$var wire   64  aaaft  s_port2 [63:0]  $end
$var wire   64  aaafu  s_port3 [63:0]  $end
$var wire    1  aaafv  s_valid       $end
$var wire    1  aaafw  s_ready       $end
$var wire   64  aaafx  m_port0 [63:0]  $end
$var wire   64  aaafy  m_port1 [63:0]  $end
$var wire   64  aaafz  m_port2 [63:0]  $end
$var wire   64  aaaga  m_port3 [63:0]  $end
$var wire    1  aaagb  m_valid       $end
$var wire    1  aaagc  m_ready       $end
$var wire    6  aaagd  v [5:0]  $end
$upscope $end
$upscope $end
$upscope $end
$upscope $end
$scope module u_yt_0 $end
$var wire   64  aaage  s_port0 [63:0]  $end
$var wire   64  aaagf  s_port1 [63:0]  $end
$var wire   64  aaagg  s_port2 [63:0]  $end
$var wire   64  aaagh  s_port3 [63:0]  $end
$var wire    1  aaagi  s_valid       $end
$var wire    1  aaagj  s_ready       $end
$var wire   64  aaagk  m_port0 [63:0]  $end
$var wire   64  aaagl  m_port1 [63:0]  $end
$var wire   64  aaagm  m_port2 [63:0]  $end
$var wire   64  aaagn  m_port3 [63:0]  $end
$var wire    1  aaago  m_valid       $end
$var wire    1  aaagp  m_ready       $end
$var wire    6  aaagq  v [5:0]  $end
$scope module u_yt_1 $end
$var wire   64  aaagr  s_port0 [63:0]  $end
$var wire   64  aaags  s_port1 [63:0]  $end
$var wire   64  aaagt  s_port2 [63:0]  $end
$var wire   64  aaagu  s_port3 [63:0]  $end
$var wire    1  aaagv  s_valid       $end
$var wire    1  aaagw  s_ready       $end
$var wire   64  aaagx  m_port0 [63:0]  $end
$var wire   64  aaagy  m_port1 [63:0]  $end
$var wire   64  aaagz  m_port2 [63:0]  $end
$var wire   64  aaaha  m_port3 [63:0]  $end
$var wire    1  aaahb  m_valid       $end
$var wire    1  aaahc  m_ready       $end
$var wire    6  aaahd  v [5:0]  $end
$scope module u_yt_2 $end
$var wire   64  aaahe  s_port0 [63:0]  $end
$var wire   64  aaahf  s_port1 [63:0]  $end
$var wire   64  aaahg  s_port2 [63:0]  $end
$var wire   64  aaahh  s_port3 [63:0]  $end
$var wire    1  aaahi  s_valid       $end
$var wire    1  aaahj  s_ready       $end
$var wire   64  aaahk  m_port0 [63:0]  $end
$var wire   64  aaahl  m_port1 [63:0]  $end
$var wire   64  aaahm  m_port2 [63:0]  $end
$var wire   64  aaahn  m_port3 [63:0]  $end
$var wire    1  aaaho  m_valid       $end
$var wire    1  aaahp  m_ready       $end
$var wire    6  aaahq  v [5:0]  $end
$scope module u_yt_3 $end
$var wire   64  aaahr  s_port0 [63:0]  $end
$var wire   64  aaahs  s_port1 [63:0]  $end
$var wire   64  aaaht  s_port2 [63:0]  $end
$var wire   64  aaahu  s_port3 [63:0]  $end
$var wire    1  aaahv  s_valid       $end
$var wire    1  aaahw  s_ready       $end
$var wire   64  aaahx  m_port0 [63:0]  $end
$var wire   64  aaahy  m_port1 [63:0]  $end
$var wire   64  aaahz  m_port2 [63:0]  $end
$var wire   64  aaaia  m_port3 [63:0]  $end
$var wire    1  aaaib  m_valid       $end
$var wire    1  aaaic  m_ready       $end
$var wire    6  aaaid  v [5:0]  $end
$upscope $end
$upscope $end
$upscope $end
$upscope $end
$upscope $end
$scope module u_encode_ints $end
$var wire   64  aaajo  s_block0 [63:0]  $end
$var wire   64  aaajp  s_block1 [63:0]  $end
$var wire   64  aaajq  s_block2 [63:0]  $end
$var wire   64  aaajr  s_block3 [63:0]  $end
$var wire   64  aaajs  s_block4 [63:0]  $end
$var wire   64  aaajt  s_block5 [63:0]  $end
$var wire   64  aaaju  s_block6 [63:0]  $end
$var wire   64  aaajv  s_block7 [63:0]  $end
$var wire   64  aaajw  s_block8 [63:0]  $end
$var wire   64  aaajx  s_block9 [63:0]  $end
$var wire   64  aaajy  s_block10 [63:0]  $end
$var wire   64  aaajz  s_block11 [63:0]  $end
$var wire   64  aaaka  s_block12 [63:0]  $end
$var wire   64  aaakb  s_block13 [63:0]  $end
$var wire   64  aaakc  s_block14 [63:0]  $end
$var wire   64  aaakd  s_block15 [63:0]  $end
$var wire    1  aaake  s_valid       $end
$var wire    1  aaakf  s_ready       $end
$var wire    1  aaakg  s_flush       $end
$var wire    6  aaakh  m_bc [5:0]  $end
$var wire   33  aaaki  m_bp [32:0]  $end
$var wire    1  aaakj  m_last       $end
$var wire    1  aaakk  m_valid       $end
$var wire    1  aaakl  m_ready       $end
$var wire    6  aaakm  k0 [5:0]  $end
$var wire    5  aaakn  n0 [4:0]  $end
$var wire    5  aaako  n1 [4:0]  $end
$var wire    5  aaakp  bc1 [4:0]  $end
$var wire   16  aaakq  bp1 [15:0]  $end
$var wire    1  aaakr  last1       $end
$var wire    1  aaaks  valid1       $end
$upscope $end
$scope module u_encode_stream $end
$var wire   16  aaakt  minbits [15:0]  $end
$var wire   16  aaaku  maxbits [15:0]  $end
$var wire   16  aaakv  maxprec [15:0]  $end
$var wire   16  aaakw  minexp [15:0]  $end
$var wire    6  aaala  s_bc [5:0]  $end
$var wire   33  aaalb  s_bp [32:0]  $end
$var wire    1  aaalc  s_last       $end
$var wire    1  aaald  s_valid       $end
$var wire    1  aaale  s_ready       $end
$var wire    1  aaalf  m_flush       $end
$scope module cs $end
$var wire    3  aaalk  s [2:0]  $end
$var wire    7  aaall  prec [6:0]  $end
$var wire    7  aaalm  planes [6:0]  $end
$var wire   128  aaaln  buf [127:0]  $end
$var wire   12  aaalo  bits [11:0]  $end
$var wire    8  aaalp  posr [7:0]  $end
$var wire    8  aaalq  posw [7:0]  $end
$upscope $end
$scope module m_bits $end
$var wire    1  aaali  valid       $end
$var wire    1  aaalj  ready       $end
$scope module data $end
$var wire   64  aaalg  tdata [63:0]  $end
$var wire    1  aaalh  tlast       $end
$upscope $end
$upscope $end
$scope module s_ex $end
$var wire   11  aaakx  data [10:0]  $end
$var wire    1  aaaky  valid       $end
$var wire    1  aaakz  ready       $end
$upscope $end
$upscope $end
$scope module u_find_emax $end
$var wire    4  aaabf  count [3:0]  $end
$var wire   11  aaabg  emax [10:0]  $end
$var wire    1  aaabh  emax_v       $end
$scope module m_ex $end
$var wire   11  aaabc  data [10:0]  $end
$var wire    1  aaabd  valid       $end
$var wire    1  aaabe  ready       $end
$upscope $end
$scope module m_fp $end
$var wire    1  aaaba  valid       $end
$var wire    1  aaabb  ready       $end
$scope module data $end
$var wire   52  aaaax  frac [51:0]  $end
$var wire   11  aaaay  expo [10:0]  $end
$var wire    1  aaaaz  sign       $end
$upscope $end
$upscope $end
$scope module s_fp $end
$var wire    1  aaaav  valid       $end
$var wire    1  aaaaw  ready       $end
$scope module data $end
$var wire   52  aaaas  frac [51:0]  $end
$var wire   11  aaaat  expo [10:0]  $end
$var wire    1  aaaau  sign       $end
$upscope $end
$upscope $end
$upscope $end
$scope module u_fwd_cast $end
$var wire   64  aaabz  m_block0 [63:0]  $end
$var wire   64  aaaca  m_block1 [63:0]  $end
$var wire   64  aaacb  m_block2 [63:0]  $end
$var wire   64  aaacc  m_block3 [63:0]  $end
$var wire   64  aaacd  m_block4 [63:0]  $end
$var wire   64  aaace  m_block5 [63:0]  $end
$var wire   64  aaacf  m_block6 [63:0]  $end
$var wire   64  aaacg  m_block7 [63:0]  $end
$var wire   64  aaach  m_block8 [63:0]  $end
$var wire   64  aaaci  m_block9 [63:0]  $end
$var wire   64  aaacj  m_block10 [63:0]  $end
$var wire   64  aaack  m_block11 [63:0]  $end
$var wire   64  aaacl  m_block12 [63:0]  $end
$var wire   64  aaacm  m_block13 [63:0]  $end
$var wire   64  aaacn  m_block14 [63:0]  $end
$var wire   64  aaaco  m_block15 [63:0]  $end
$var wire    1  aaacp  m_valid       $end
$var wire    1  aaacq  m_ready       $end
$var wire    4  aaacr  count [3:0]  $end
$scope module s_ex $end
$var wire   11  aaabr  data [10:0]  $end
$var wire    1  aaabs  valid       $end
$var wire    1  aaabt  ready       $end
$upscope $end
$scope module s_fp $end
$var wire    1  aaabx  valid       $end
$var wire    1  aaaby  ready       $end
$scope module data $end
$var wire   52  aaabu  frac [51:0]  $end
$var wire   11  aaabv  expo [10:0]  $end
$var wire    1  aaabw  sign       $end
$upscope $end
$upscope $end
$upscope $end
$scope module u_ssplit_ex $end
$scope module m_port1 $end
$var wire   11  aaabl  data [10:0]  $end
$var wire    1  aaabm  valid       $end
$var wire    1  aaabn  ready       $end
$upscope $end
$scope module m_port2 $end
$var wire   11  aaabo  data [10:0]  $end
$var wire    1  aaabp  valid       $end
$var wire    1  aaabq  ready       $end
$upscope $end
$scope module s_port $end
$var wire   11  aaabi  data [10:0]  $end
$var wire    1  aaabj  valid       $end
$var wire    1  aaabk  ready       $end
$upscope $end
$upscope $end
$upscope $end
$scope module u_pulse $end
$var wire    1  aaaap  sig       $end
$var wire    2  aaaaq  st [1:0]  $end
$var wire    8  aaaar  count [7:0]  $end
$upscope $end
$upscope $end
$enddefinitions  $end

$comment
All initial values are dumped below at time 0 sec = 0 timescale units.
$end

$dumpvars
1aaaaa
0aaaab
b10000000000 aaaac
b10000000000 aaaad
b1000000 aaaae
b1111101111001110 aaaaf
b0 aaaag
b0 aaaah
0aaaai
0aaaaj
0aaaak
b0 aaaal
0aaaam
0aaaan
0aaaao
0aaaap
b10 aaaaq
b1 aaaar
b0 aaaas
b0 aaaat
0aaaau
0aaaav
0aaaaw
b0 aaaax
b0 aaaay
0aaaaz
0aaaba
0aaabb
b0 aaabc
0aaabd
1aaabe
b1111 aaabf
b0 aaabg
0aaabh
b0 aaabi
0aaabj
1aaabk
b0 aaabl
0aaabm
0aaabn
b0 aaabo
0aaabp
0aaabq
b0 aaabr
0aaabs
0aaabt
b0 aaabu
b0 aaabv
0aaabw
0aaabx
0aaaby
b0 aaabz
b0 aaaca
b0 aaacb
b0 aaacc
b0 aaacd
b0 aaace
b0 aaacf
b0 aaacg
b0 aaach
b0 aaaci
b0 aaacj
b0 aaack
b0 aaacl
b0 aaacm
b0 aaacn
b0 aaaco
0aaacp
1aaacq
b0 aaacr
b0 aaacs
b0 aaact
b0 aaacu
b0 aaacv
b0 aaacw
b0 aaacx
b0 aaacy
b0 aaacz
b0 aaada
b0 aaadb
b0 aaadc
b0 aaadd
b0 aaade
b0 aaadf
b0 aaadg
b0 aaadh
0aaadi
1aaadj
b0 aaadk
b0 aaadl
b0 aaadm
b0 aaadn
b0 aaado
b0 aaadp
b0 aaadq
b0 aaadr
b0 aaads
b0 aaadt
b0 aaadu
b0 aaadv
b0 aaadw
b0 aaadx
b0 aaady
b0 aaadz
0aaaea
1aaaeb
0aaaec
0aaaed
b0 aaaee
b0 aaaef
b0 aaaeg
b0 aaaeh
0aaaei
1aaaej
b0 aaaek
b0 aaael
b0 aaaem
b0 aaaen
0aaaeo
1aaaep
b0 aaaeq
b0 aaaer
b0 aaaes
b0 aaaet
b0 aaaeu
0aaaev
1aaaew
b0 aaaex
b0 aaaey
b0 aaaez
b0 aaafa
0aaafb
1aaafc
b0 aaafd
b0 aaafe
b0 aaaff
b0 aaafg
b0 aaafh
0aaafi
1aaafj
b0 aaafk
b0 aaafl
b0 aaafm
b0 aaafn
0aaafo
1aaafp
b0 aaafq
b0 aaafr
b0 aaafs
b0 aaaft
b0 aaafu
0aaafv
1aaafw
b0 aaafx
b0 aaafy
b0 aaafz
b0 aaaga
0aaagb
1aaagc
b0 aaagd
b0 aaage
b0 aaagf
b0 aaagg
b0 aaagh
0aaagi
1aaagj
b0 aaagk
b0 aaagl
b0 aaagm
b0 aaagn
0aaago
1aaagp
b0 aaagq
b0 aaagr
b0 aaags
b0 aaagt
b0 aaagu
0aaagv
1aaagw
b0 aaagx
b0 aaagy
b0 aaagz
b0 aaaha
0aaahb
1aaahc
b0 aaahd
b0 aaahe
b0 aaahf
b0 aaahg
b0 aaahh
0aaahi
1aaahj
b0 aaahk
b0 aaahl
b0 aaahm
b0 aaahn
0aaaho
1aaahp
b0 aaahq
b0 aaahr
b0 aaahs
b0 aaaht
b0 aaahu
0aaahv
1aaahw
b0 aaahx
b0 aaahy
b0 aaahz
b0 aaaia
0aaaib
1aaaic
b0 aaaid
b0 aaaie
b0 aaaif
b0 aaaig
b0 aaaih
b0 aaaii
b0 aaaij
b0 aaaik
b0 aaail
b0 aaaim
b0 aaain
b0 aaaio
b0 aaaip
b0 aaaiq
b0 aaair
b0 aaais
b0 aaait
0aaaiu
1aaaiv
b0 aaaiw
b0 aaaix
b0 aaaiy
b0 aaaiz
b0 aaaja
b0 aaajb
b0 aaajc
b0 aaajd
b0 aaaje
b0 aaajf
b0 aaajg
b0 aaajh
b0 aaaji
b0 aaajj
b0 aaajk
b0 aaajl
0aaajm
1aaajn
b0 aaajo
b0 aaajp
b0 aaajq
b0 aaajr
b0 aaajs
b0 aaajt
b0 aaaju
b0 aaajv
b0 aaajw
b0 aaajx
b0 aaajy
b0 aaajz
b0 aaaka
b0 aaakb
b0 aaakc
b0 aaakd
0aaake
1aaakf
0aaakg
b0 aaakh
b0 aaaki
0aaakj
0aaakk
0aaakl
b0 aaakm
b0 aaakn
b0 aaako
b0 aaakp
b0 aaakq
0aaakr
0aaaks
b10000000000 aaakt
b10000000000 aaaku
b1000000 aaakv
b1111101111001110 aaakw
b0 aaakx
0aaaky
0aaakz
b0 aaala
b0 aaalb
0aaalc
0aaald
0aaale
0aaalf
b0 aaalg
0aaalh
0aaali
0aaalj
b0 aaalk
b0 aaall
b0 aaalm
b0 aaaln
b0 aaalo
b0 aaalp
b0 aaalq
$end

#5
0aaaaa

#10
1aaaaa
b0 aaaar

#15
0aaaaa

#20
1aaaaa
1aaaab
1aaaap
b11 aaaaq

#25
0aaaaa

#30
1aaaaa
b1100101010111001000010101111101010101010100101110000 aaaag
b1111001111 aaaah
1aaaai
1aaaaj
1aaaak
1aaaao
b1100101010111001000010101111101010101010100101110000 aaaas
b1111001111 aaaat
1aaaau
1aaaav
1aaaaw
1aaalj
b1000000 aaall

#35
0aaaaa

#40
1aaaaa
b1111000011001011011011100011000100011001000100110 aaaag
b1111001110 aaaah
b1111000011001011011011100011000100011001000100110 aaaas
b1111001110 aaaat
b1100101010111001000010101111101010101010100101110000 aaaax
b1111001111 aaaay
1aaaaz
1aaaba
b1110 aaabf
b1111010000 aaabg
b1100101010111001000010101111101010101010100101110000 aaabu
b1111001111 aaabv
1aaabw
1aaabx

#45
0aaaaa

#50
1aaaaa
b1110110010011011010110111011010001011000000010111010 aaaag
b1110110010011011010110111011010001011000000010111010 aaaas
b1101 aaabf

#55
0aaaaa

#60
1aaaaa
b1011001001110011001100101111101111001000010001001011 aaaag
b1111001111 aaaah
b1011001001110011001100101111101111001000010001001011 aaaas
b1111001111 aaaat
b1100 aaabf

#65
0aaaaa

#70
1aaaaa
b1100101010111000110000011011001110110011000011101111 aaaag
b1100101010111000110000011011001110110011000011101111 aaaas
b1011 aaabf

#75
0aaaaa

#80
1aaaaa
b1100101010111000100101101110001101000001000101001111 aaaag
b1100101010111000100101101110001101000001000101001111 aaaas
b1010 aaabf

#85
0aaaaa

#90
1aaaaa
b101110000001011000100111100011000011101110111100001 aaaag
b101110000001011000100111100011000011101110111100001 aaaas
b1001 aaabf

#95
0aaaaa

#100
1aaaaa
b1100101010111000001111111001001000011111011001101101 aaaag
b1100101010111000001111111001001000011111011001101101 aaaas
b1000 aaabf

#105
0aaaaa

#110
1aaaaa
b110010110100110110000000101011111011000111000100011 aaaag
b110010110100110110000000101011111011000111000100011 aaaas
b111 aaabf

#115
0aaaaa

#120
1aaaaa
b1001010110100111011100111111001100000001101101101110 aaaag
b1001010110100111011100111111001100000001101101101110 aaaas
b110 aaabf

#125
0aaaaa

#130
1aaaaa
b110011100111110010101000111001110101101010111110110 aaaag
b110011100111110010101000111001110101101010111110110 aaaas
b101 aaabf

#135
0aaaaa

#140
1aaaaa
b1100011000101101111101101100101011100011110110000010 aaaag
b1100011000101101111101101100101011100011110110000010 aaaas
b100 aaabf

#145
0aaaaa

#150
1aaaaa
b1100101010111000001011001010010010000111101000000010 aaaag
b1100101010111000001011001010010010000111101000000010 aaaas
b11 aaabf

#155
0aaaaa

#160
1aaaaa
b1010111110000100010111001111010001011000000001001101 aaaag
b1010111110000100010111001111010001011000000001001101 aaaas
b10 aaabf

#165
0aaaaa

#170
1aaaaa
b1000001010111000100101000000111000011010111000000100 aaaag
b1000001010111000100101000000111000011010111000000100 aaaas
b1 aaabf

#175
0aaaaa

#180
1aaaaa
b101010111101001110110110010010111010111011100101100 aaaag
b101010111101001110110110010010111010111011100101100 aaaas
b0 aaabf

#185
0aaaaa

#190
1aaaaa
0aaaaj
0aaaak
0aaaav
0aaaaw
b1111 aaabf
1aaabh

#195
0aaaaa

#200
1aaaaa
b1111010000 aaabc
1aaabd
b0 aaabg
0aaabh
b1111010000 aaabi
1aaabj

#205
0aaaaa

#210
1aaaaa
1aaabb
b0 aaabc
0aaabd
b0 aaabi
0aaabj
b1111010000 aaabl
1aaabm
b1111010000 aaabo
1aaabp
b1111010000 aaabr
1aaabs
1aaaby
b1111010000 aaakx
1aaaky

#215
0aaaaa

#220
1aaaaa
b1111000011001011011011100011000100011001000100110 aaaax
b1111001110 aaaay
1aaabq
b1111000011001011011011100011000100011001000100110 aaabu
b1111001110 aaabv
b1100011010101000110111101010000010101010101011010010000000000000 aaabz
b1 aaacr
b1100011010101000110111101010000010101010101011010010000000000000 aaacs
b1100011010101000110111101010000010101010101011010010000000000000 aaaee
1aaakz
b10 aaalk

#225
0aaaaa

#230
1aaaaa
b1110110010011011010110111011010001011000000010111010 aaaax
b0 aaabo
0aaabp
0aaabq
b1110110010011011010110111011010001011000000010111010 aaabu
b1110111000011110011010010010001110011101110011011101101000000000 aaaca
b10 aaacr
b1110111000011110011010010010001110011101110011011101101000000000 aaact
b1110111000011110011010010010001110011101110011011101101000000000 aaaef
1aaakl
b0 aaakx
0aaaky
0aaakz
1aaale
b11 aaalk
b11110100001 aaaln
b1100 aaalo
b1100 aaalq

#235
0aaaaa

#240
1aaaaa
b1011001001110011001100101111101111001000010001001011 aaaax
b1111001111 aaaay
b1011001001110011001100101111101111001000010001001011 aaabu
b1111001111 aaabv
b1110000100110110010010100100010010111010011111110100011000000000 aaacb
b11 aaacr
b1110000100110110010010100100010010111010011111110100011000000000 aaacu
b1110000100110110010010100100010010111010011111110100011000000000 aaaeg
b1 aaakh
b1 aaala

#245
0aaaaa

#250
1aaaaa
b1100101010111000110000011011001110110011000011101111 aaaax
b1100101010111000110000011011001110110011000011101111 aaabu
b1100100110110001100110011010000010000110111101110110101000000000 aaacc
b100 aaacr
b1100100110110001100110011010000010000110111101110110101000000000 aaacv
b1100100110110001100110011010000010000110111101110110101000000000 aaaeh

#255
0aaaaa

#260
1aaaaa
b1100101010111000100101101110001101000001000101001111 aaaax
b1100101010111000100101101110001101000001000101001111 aaabu
b1100011010101000111001111100100110001001100111100010001000000000 aaacd
b101 aaacr
b1100011010101000111001111100100110001001100111100010001000000000 aaacw
b1100011010101000111001111100100110001001100111100010001000000000 aaaer

#265
0aaaaa

#270
1aaaaa
b101110000001011000100111100011000011101110111100001 aaaax
b101110000001011000100111100011000011101110111100001 aaabu
b1100011010101000111011010010001110010111110111010110001000000000 aaace
b110 aaacr
b1100011010101000111011010010001110010111110111010110001000000000 aaacx
b1100011010101000111011010010001110010111110111010110001000000000 aaaes

#275
0aaaaa

#280
1aaaaa
b1100101010111000001111111001001000011111011001101101 aaaax
b1100101010111000001111111001001000011111011001101101 aaabu
b1101010001111110100111011000011100111100010001000011111000000000 aaacf
b111 aaacr
b1101010001111110100111011000011100111100010001000011111000000000 aaacy
b1111000110101010001101111010100000101010101010110100100000000000 aaaek
b1110111000010100110001011001001000110101010101100001101000000000 aaael
b111001010101110010000101011111010101010101001011100000000000 aaaem
b11100101010111001000010101111101010101010100101110000000000 aaaen
b1101010001111110100111011000011100111100010001000011111000000000 aaaet
b1111000110101010001101111010100000101010101010110100100000000000 aaage
b1110111000010100110001011001001000110101010101100001101000000000 aaagr
b111001010101110010000101011111010101010101001011100000000000 aaahe
b11100101010111001000010101111101010101010100101110000000000 aaahr

#285
0aaaaa

#290
1aaaaa
b110010110100110110000000101011111011000111000100011 aaaax
b110010110100110110000000101011111011000111000100011 aaabu
b1100011010101000111110000000110110111100000100110010011000000000 aaacg
b1000 aaacr
b1100011010101000111110000000110110111100000100110010011000000000 aaacz
b1110110100110001110100011111000100010010000111101011111010000000 aaaek
b1110110011110110101011000010010001101111001100101111011110100000 aaael
b100111011101011000101010000010111100110010000010111010000000 aaaem
b1110110010010111001100101000101110101111000110111000000 aaaen
b1100011010101000111110000000110110111100000100110010011000000000 aaaeu
b1110110100110001110100011111000100010010000111101011111010000000 aaage
b1110110011110110101011000010010001101111001100101111011110100000 aaagr
b100111011101011000101010000010111100110010000010111010000000 aaahe
b1110110010010111001100101000101110101111000110111000000 aaahr

#295
0aaaaa

#300
1aaaaa
b1001010110100111011100111111001100000001101101101110 aaaax
b1001010110100111011100111111001100000001101101101110 aaabu
b1101001101001011001001111111010100000100111000111011101000000000 aaach
b1001 aaacr
b1101001101001011001001111111010100000100111000111011101000000000 aaada
b1110010101111111011001001000001001000000101111101001000000000000 aaaek
b1110111011100011010001111000000000100011100010110000001101000000 aaael
b1000101010111101010011000111101011011010000000000000000000 aaaem
b110000000001111011111011111101111111111001111101001110000000 aaaen
b1101001101001011001001111111010100000100111000111011101000000000 aaafe
b1110010101111111011001001000001001000000101111101001000000000000 aaage
b1110111011100011010001111000000000100011100010110000001101000000 aaagr
b1000101010111101010011000111101011011010000000000000000000 aaahe
b110000000001111011111011111101111111111001111101001110000000 aaahr

#305
0aaaaa

#310
1aaaaa
b110011100111110010101000111001110101101010111110110 aaaax
b110011100111110010101000111001110101101010111110110 aaabu
b1100110101001011000100011000000110011111110010010010010000000000 aaaci
b1010 aaacr
b1100110101001011000100011000000110011111110010010010010000000000 aaadb
b1101011111101011110010101110101001100010011111000110101010000000 aaaek
b1111111111011011110001110111110111111001010111011011001000100000 aaael
b111110111110100011101100100111001001101010100010010110000000 aaaem
b10100111000001000101111001110010000110001101100000011000000 aaaen
b1100110101001011000100011000000110011111110010010010010000000000 aaaff
b1101011111101011110010101110101001100010011111000110101010000000 aaage
b1111111111011011110001110111110111111001010111011011001000100000 aaagr
b111110111110100011101100100111001001101010100010010110000000 aaahe
b10100111000001000101111001110010000110001101100000011000000 aaahr

#315
0aaaaa

